{
    "version": 1,
    "project": "scitools-iris",
    "repo": "https://github.com/SciTools/iris.git",
    "environment_type": "conda",
    "conda_channels": ["conda-forge", "defaults"],
    "install_command": [
	"python {conf_dir}/cache.py --build_dir={build_dir} --conf_dir={conf_dir} --env_dir={env_dir} --commit={commit} --install",
        "in-dir={env_dir} python -mpip install {wheel_file}"
    ],
    "build_command": [
        "python {conf_dir}/cache.py --build_dir={build_dir} --conf_dir={conf_dir} --env_dir={env_dir} --commit={commit}",
        "python setup.py build",
        "PIP_NO_BUILD_ISOLATION=false python -mpip wheel --no-deps --no-index -w {build_cache_dir} {build_dir}"
    ],
    "branches": ["mesh-data-model"],
    "benchmark_dir": "benchmarks",
    "env_dir": ".asv/env",
    "results_dir": ".asv/results",
    "html_dir": ".asv/html",
}
